EESchema Schematic File Version 4
LIBS:OpenLitter-cache
EELAYER 26 0
EELAYER END
$Descr A4 11693 8268
encoding utf-8
Sheet 1 1
Title ""
Date ""
Rev ""
Comp ""
Comment1 ""
Comment2 ""
Comment3 ""
Comment4 ""
$EndDescr
$Comp
L Connector_Generic:Conn_02x03_Odd_Even J1
U 1 1 5BBA19C3
P 7300 3400
F 0 "J1" H 7350 3817 50  0000 C CNN
F 1 "Conn_02x03_Odd_Even" H 7350 3726 50  0000 C CNN
F 2 "DF11:hrs-df11c-6dp-2v" H 7300 3400 50  0001 C CNN
F 3 "~" H 7300 3400 50  0001 C CNN
	1    7300 3400
	-1   0    0    1   
$EndComp
$Comp
L Connector_Generic:Conn_02x04_Odd_Even J2
U 1 1 5BBA1AC9
P 2600 3950
F 0 "J2" H 2650 4467 50  0000 C CNN
F 1 "Conn_02x04_Odd_Even" H 2650 4376 50  0000 C CNN
F 2 "DF11:hrs-df11c-8dp-2v" H 2600 3950 50  0001 C CNN
F 3 "~" H 2600 3950 50  0001 C CNN
	1    2600 3950
	-1   0    0    1   
$EndComp
$Comp
L Connector_Generic:Conn_02x02_Odd_Even J3
U 1 1 5BBA1B56
P 9950 850
F 0 "J3" H 10000 1067 50  0000 C CNN
F 1 "Conn_02x02_Odd_Even" H 10000 976 50  0000 C CNN
F 2 "DF11:hrs-df11c-4dp-2v" H 9950 850 50  0001 C CNN
F 3 "~" H 9950 850 50  0001 C CNN
	1    9950 850 
	-1   0    0    1   
$EndComp
$Comp
L Connector_Generic:Conn_02x02_Odd_Even J4
U 1 1 5BBA1C2E
P 3000 6000
F 0 "J4" H 3050 6217 50  0000 C CNN
F 1 "Conn_02x02_Odd_Even" H 3050 6126 50  0000 C CNN
F 2 "DF11:hrs-df11c-4dp-2v" H 3000 6000 50  0001 C CNN
F 3 "~" H 3000 6000 50  0001 C CNN
	1    3000 6000
	-1   0    0    1   
$EndComp
$Comp
L power:PWR_FLAG #FLG?
U 1 1 5BBA1E94
P 1100 1050
F 0 "#FLG?" H 1100 1125 50  0001 C CNN
F 1 "PWR_FLAG" H 1100 1224 50  0000 C CNN
F 2 "" H 1100 1050 50  0001 C CNN
F 3 "~" H 1100 1050 50  0001 C CNN
	1    1100 1050
	1    0    0    -1  
$EndComp
$Comp
L power:PWR_FLAG #FLG?
U 1 1 5BBA1EC5
P 1600 1050
F 0 "#FLG?" H 1600 1125 50  0001 C CNN
F 1 "PWR_FLAG" H 1600 1224 50  0000 C CNN
F 2 "" H 1600 1050 50  0001 C CNN
F 3 "~" H 1600 1050 50  0001 C CNN
	1    1600 1050
	1    0    0    -1  
$EndComp
$Comp
L power:+15V #PWR?
U 1 1 5BBA1F13
P 1100 1300
F 0 "#PWR?" H 1100 1150 50  0001 C CNN
F 1 "+15V" H 1115 1473 50  0000 C CNN
F 2 "" H 1100 1300 50  0001 C CNN
F 3 "" H 1100 1300 50  0001 C CNN
	1    1100 1300
	-1   0    0    1   
$EndComp
Wire Wire Line
	1100 1050 1100 1300
$Comp
L power:GND #PWR?
U 1 1 5BBA1F67
P 1600 1300
F 0 "#PWR?" H 1600 1050 50  0001 C CNN
F 1 "GND" H 1605 1127 50  0000 C CNN
F 2 "" H 1600 1300 50  0001 C CNN
F 3 "" H 1600 1300 50  0001 C CNN
	1    1600 1300
	1    0    0    -1  
$EndComp
Wire Wire Line
	1600 1300 1600 1050
$Comp
L Sensor_Optical:A1050 Q3
U 1 1 5BBB8A74
P 750 3400
F 0 "Q3" H 820 3446 50  0000 L CNN
F 1 "Ambiant Light Sensor" H 820 3355 50  0000 L CNN
F 2 "OptoDevice:R_LDR_D6.4mm_P3.4mm_Vertical" V 925 3400 50  0001 C CNN
F 3 "http://cdn-reichelt.de/documents/datenblatt/A500/A106012.pdf" H 750 3350 50  0001 C CNN
	1    750  3400
	1    0    0    -1  
$EndComp
$Comp
L Device:LED D1
U 1 1 5BBB8B08
P 1100 2200
F 0 "D1" H 1091 2416 50  0000 C CNN
F 1 "Blue LED" H 1091 2325 50  0000 C CNN
F 2 "" H 1100 2200 50  0001 C CNN
F 3 "~" H 1100 2200 50  0001 C CNN
	1    1100 2200
	1    0    0    -1  
$EndComp
$Comp
L Device:LED D2
U 1 1 5BBB8B82
P 1700 2200
F 0 "D2" H 1691 2416 50  0000 C CNN
F 1 "Yellow LED" H 1691 2325 50  0000 C CNN
F 2 "" H 1700 2200 50  0001 C CNN
F 3 "~" H 1700 2200 50  0001 C CNN
	1    1700 2200
	1    0    0    -1  
$EndComp
$Comp
L Device:LED D3
U 1 1 5BBB8BB8
P 2300 2200
F 0 "D3" H 2291 2416 50  0000 C CNN
F 1 "Red LED" H 2291 2325 50  0000 C CNN
F 2 "" H 2300 2200 50  0001 C CNN
F 3 "~" H 2300 2200 50  0001 C CNN
	1    2300 2200
	1    0    0    -1  
$EndComp
$Comp
L Device:LED D11
U 1 1 5BBB8BF8
P 2900 2200
F 0 "D11" H 2891 2416 50  0000 C CNN
F 1 "Power LED" H 2891 2325 50  0000 C CNN
F 2 "" H 2900 2200 50  0001 C CNN
F 3 "~" H 2900 2200 50  0001 C CNN
	1    2900 2200
	1    0    0    -1  
$EndComp
$Comp
L Adafruit_DRV8871:DRV8871 U?
U 1 1 5BC3B66B
P 7250 4900
F 0 "U?" H 7250 4972 50  0000 C CNN
F 1 "DRV8871" H 7250 5063 50  0000 C CNN
F 2 "" H 7250 4900 50  0001 C CNN
F 3 "" H 7250 4900 50  0001 C CNN
	1    7250 4900
	-1   0    0    1   
$EndComp
Wire Wire Line
	7500 3500 7700 3500
Wire Wire Line
	7700 3500 7700 4150
Wire Wire Line
	7700 4150 7300 4150
Wire Wire Line
	7300 4150 7300 4250
Wire Wire Line
	7200 4250 7200 4150
Wire Wire Line
	7200 4150 6800 4150
Wire Wire Line
	6800 4150 6800 3500
Wire Wire Line
	6800 3500 7000 3500
Wire Wire Line
	7500 3400 7850 3400
Wire Wire Line
	7850 3400 7850 4700
Wire Wire Line
	7850 4700 7650 4700
Wire Wire Line
	7500 3300 7950 3300
Wire Wire Line
	7950 3300 7950 4600
Wire Wire Line
	7950 4600 7650 4600
$Comp
L MCU_Module:Arduino_Nano_v3.x A?
U 1 1 5BC3C25C
P 4850 4100
F 0 "A?" H 4850 3014 50  0000 C CNN
F 1 "Arduino_Nano_v3.x" H 4850 2923 50  0000 C CNN
F 2 "Module:Arduino_Nano" H 5000 3150 50  0001 L CNN
F 3 "http://www.mouser.com/pdfdocs/Gravitech_Arduino_Nano3_0.pdf" H 4850 3100 50  0001 C CNN
	1    4850 4100
	1    0    0    -1  
$EndComp
Wire Wire Line
	7300 4150 7300 3900
Wire Wire Line
	7300 3900 6550 3900
Wire Wire Line
	6550 3900 6550 2450
Connection ~ 7300 4150
Connection ~ 6800 4150
Wire Wire Line
	4950 5100 4950 5150
Wire Wire Line
	4950 5150 6800 5150
Wire Wire Line
	6800 4150 6800 5150
Wire Wire Line
	6550 2450 4750 2450
Wire Wire Line
	4750 2450 4750 3100
NoConn ~ 5350 4800
Text Label 4350 3800 2    50   ~ 0
Weight_Sensor
Text Label 2800 3850 0    50   ~ 0
Weight_Sensor
Text Label 2800 3750 0    50   ~ 0
LED_CCA
Text Label 4350 4400 2    50   ~ 0
LED_CCA
Wire Wire Line
	3600 2950 3600 4050
Wire Wire Line
	3600 4050 2800 4050
Text Label 2800 3950 0    50   ~ 0
Mag_Left
Text Label 2300 4050 2    50   ~ 0
Mag_Right
$Comp
L power:GND #PWR?
U 1 1 5BC42D3B
P 1500 3900
F 0 "#PWR?" H 1500 3650 50  0001 C CNN
F 1 "GND" H 1505 3727 50  0000 C CNN
F 2 "" H 1500 3900 50  0001 C CNN
F 3 "" H 1500 3900 50  0001 C CNN
	1    1500 3900
	1    0    0    -1  
$EndComp
Wire Wire Line
	1500 3750 2150 3750
Wire Wire Line
	2300 3850 2150 3850
Wire Wire Line
	2150 3850 2150 3750
Connection ~ 2150 3750
Wire Wire Line
	2150 3750 2300 3750
Wire Wire Line
	1500 3750 1500 3900
Wire Wire Line
	6850 4600 6450 4600
Wire Wire Line
	6450 4600 6450 4500
Wire Wire Line
	6450 4500 5350 4500
Wire Wire Line
	5350 4600 6350 4600
Wire Wire Line
	6350 4600 6350 4700
Wire Wire Line
	6350 4700 6850 4700
Wire Wire Line
	2300 3950 2150 3950
Wire Wire Line
	2150 3950 2150 3850
Connection ~ 2150 3850
Wire Wire Line
	5050 3100 5050 2950
Wire Wire Line
	5050 2950 3600 2950
Text Label 5350 4100 0    50   ~ 0
Mag_Right
Text Label 5350 4200 0    50   ~ 0
Mag_Left
$Comp
L Switch:SW_DIP_x01 SW?
U 1 1 5BCA3273
P 2500 5100
F 0 "SW?" H 2500 5367 50  0000 C CNN
F 1 "SW_DIP_x01" H 2500 5276 50  0000 C CNN
F 2 "" H 2500 5100 50  0001 C CNN
F 3 "" H 2500 5100 50  0001 C CNN
	1    2500 5100
	1    0    0    -1  
$EndComp
$Comp
L power:GND #PWR?
U 1 1 5BCA32E4
P 2000 5300
F 0 "#PWR?" H 2000 5050 50  0001 C CNN
F 1 "GND" H 2005 5127 50  0000 C CNN
F 2 "" H 2000 5300 50  0001 C CNN
F 3 "" H 2000 5300 50  0001 C CNN
	1    2000 5300
	1    0    0    -1  
$EndComp
Wire Wire Line
	2200 5100 2000 5100
Wire Wire Line
	2000 5100 2000 5300
Wire Wire Line
	2800 5100 3750 5100
Wire Wire Line
	3750 5100 3750 3700
Wire Wire Line
	4350 3700 3750 3700
$EndSCHEMATC
