(kicad_pcb (version 20171130) (host pcbnew "(5.0.0)")

  (general
    (thickness 1.6)
    (drawings 5)
    (tracks 0)
    (zones 0)
    (modules 4)
    (nets 1)
  )

  (page A4)
  (layers
    (0 F.Cu signal)
    (31 B.Cu signal)
    (32 B.Adhes user)
    (33 F.Adhes user)
    (34 B.Paste user)
    (35 F.Paste user)
    (36 B.SilkS user)
    (37 F.SilkS user)
    (38 B.Mask user)
    (39 F.Mask user)
    (40 Dwgs.User user)
    (41 Cmts.User user)
    (42 Eco1.User user)
    (43 Eco2.User user)
    (44 Edge.Cuts user)
    (45 Margin user)
    (46 B.CrtYd user)
    (47 F.CrtYd user)
    (48 B.Fab user)
    (49 F.Fab user)
  )

  (setup
    (last_trace_width 0.25)
    (trace_clearance 0.2)
    (zone_clearance 0.508)
    (zone_45_only no)
    (trace_min 0.2)
    (segment_width 0.2)
    (edge_width 0.15)
    (via_size 0.8)
    (via_drill 0.4)
    (via_min_size 0.4)
    (via_min_drill 0.3)
    (uvia_size 0.3)
    (uvia_drill 0.1)
    (uvias_allowed no)
    (uvia_min_size 0.2)
    (uvia_min_drill 0.1)
    (pcb_text_width 0.3)
    (pcb_text_size 1.5 1.5)
    (mod_edge_width 0.15)
    (mod_text_size 1 1)
    (mod_text_width 0.15)
    (pad_size 1.524 1.524)
    (pad_drill 0.762)
    (pad_to_mask_clearance 0.2)
    (aux_axis_origin 0 0)
    (visible_elements 7FFFFFFF)
    (pcbplotparams
      (layerselection 0x010fc_ffffffff)
      (usegerberextensions false)
      (usegerberattributes false)
      (usegerberadvancedattributes false)
      (creategerberjobfile false)
      (excludeedgelayer true)
      (linewidth 0.100000)
      (plotframeref false)
      (viasonmask false)
      (mode 1)
      (useauxorigin false)
      (hpglpennumber 1)
      (hpglpenspeed 20)
      (hpglpendiameter 15.000000)
      (psnegative false)
      (psa4output false)
      (plotreference true)
      (plotvalue true)
      (plotinvisibletext false)
      (padsonsilk false)
      (subtractmaskfromsilk false)
      (outputformat 1)
      (mirror false)
      (drillshape 1)
      (scaleselection 1)
      (outputdirectory ""))
  )

  (net 0 "")

  (net_class Default "This is the default net class."
    (clearance 0.2)
    (trace_width 0.25)
    (via_dia 0.8)
    (via_drill 0.4)
    (uvia_dia 0.3)
    (uvia_drill 0.1)
  )

  (module DF11:hrs-df11c-6dp-2v (layer F.Cu) (tedit 5BB978BF) (tstamp 5BDDAB10)
    (at 203.034739 99.187 330)
    (path /5BBA19C3)
    (fp_text reference J1 (at 0.5 0 330) (layer F.SilkS)
      (effects (font (size 1 1) (thickness 0.15)))
    )
    (fp_text value Conn_02x06_Odd_Even (at 0 6 330) (layer F.Fab)
      (effects (font (size 1 1) (thickness 0.15)))
    )
    (fp_line (start -5.5 1.5) (end -5.5 3.5) (layer F.SilkS) (width 0.15))
    (fp_line (start -5.5 3.5) (end -3 3.5) (layer F.SilkS) (width 0.15))
    (fp_line (start -3 -3.5) (end -5.5 -3.5) (layer F.SilkS) (width 0.15))
    (fp_line (start -5.5 -3.5) (end -5.5 -1.5) (layer F.SilkS) (width 0.15))
    (fp_line (start 5.5 -1.5) (end 5.5 -3.5) (layer F.SilkS) (width 0.15))
    (fp_line (start 5.5 -3.5) (end 3 -3.5) (layer F.SilkS) (width 0.15))
    (fp_line (start 3 3.5) (end 5.5 3.5) (layer F.SilkS) (width 0.15))
    (fp_line (start 5.5 3.5) (end 5.5 1.5) (layer F.SilkS) (width 0.15))
    (fp_line (start 3.5 3.5) (end 3.5 -3.5) (layer F.SilkS) (width 0.15))
    (fp_line (start -3.5 -3.5) (end -3.5 3.5) (layer F.SilkS) (width 0.15))
    (fp_line (start 3.5 -1.5) (end 3 -1.5) (layer F.SilkS) (width 0.15))
    (fp_line (start 3 -1.5) (end 3 0) (layer F.SilkS) (width 0.15))
    (fp_line (start 3 0) (end 3.5 0) (layer F.SilkS) (width 0.15))
    (fp_line (start -3.5 -1.5) (end -3 -1.5) (layer F.SilkS) (width 0.15))
    (fp_line (start -3 -1.5) (end -3 0) (layer F.SilkS) (width 0.15))
    (fp_line (start -3 0) (end -3.5 0) (layer F.SilkS) (width 0.15))
    (pad "" smd rect (at 6.35 0 330) (size 2 2.8) (layers F.Cu F.Paste F.Mask))
    (pad "" smd rect (at -6.35 0 330) (size 2 2.8) (layers F.Cu F.Paste F.Mask))
    (pad 4 smd rect (at 0 -4.15 330) (size 1.1 2) (layers F.Cu F.Paste F.Mask))
    (pad 2 smd rect (at 2 -4.15 330) (size 1.1 2) (layers F.Cu F.Paste F.Mask))
    (pad 1 smd rect (at 2 4.15 330) (size 1.1 2) (layers F.Cu F.Paste F.Mask))
    (pad 3 smd rect (at 0 4.15 330) (size 1.1 2) (layers F.Cu F.Paste F.Mask))
    (pad 5 smd rect (at -2 4.15 330) (size 1.1 2) (layers F.Cu F.Paste F.Mask))
    (pad 6 smd rect (at -2 -4.15 330) (size 1.1 2) (layers F.Cu F.Paste F.Mask))
    (model ../../../../../home/liknus/git/hrs-df11-library/hrs-df11.3dshapes/hrs-df11c-10dp-2v.wrl
      (at (xyz 0 0 0))
      (scale (xyz 0.3937 0.3937 0.3937))
      (rotate (xyz 0 0 0))
    )
  )

  (module DF11:hrs-df11c-8dp-2v (layer F.Cu) (tedit 5BB9784E) (tstamp 5BDDAB2E)
    (at 205.874688 86.249 330)
    (path /5BBA1AC9)
    (fp_text reference J2 (at 0.5 0 330) (layer F.SilkS)
      (effects (font (size 1 1) (thickness 0.15)))
    )
    (fp_text value Conn_02x08_Odd_Even (at 0 6 330) (layer F.Fab)
      (effects (font (size 1 1) (thickness 0.15)))
    )
    (fp_line (start -5.5 1.5) (end -5.5 3.5) (layer F.SilkS) (width 0.15))
    (fp_line (start -5.5 3.5) (end -3 3.5) (layer F.SilkS) (width 0.15))
    (fp_line (start -3 -3.5) (end -5.5 -3.5) (layer F.SilkS) (width 0.15))
    (fp_line (start -5.5 -3.5) (end -5.5 -1.5) (layer F.SilkS) (width 0.15))
    (fp_line (start 7.5 -1.5) (end 7.5 -3.5) (layer F.SilkS) (width 0.15))
    (fp_line (start 7.5 -3.5) (end 5 -3.5) (layer F.SilkS) (width 0.15))
    (fp_line (start 5 3.5) (end 7.5 3.5) (layer F.SilkS) (width 0.15))
    (fp_line (start 7.5 3.5) (end 7.5 1.5) (layer F.SilkS) (width 0.15))
    (fp_line (start 5.5 3.5) (end 5.5 -3.5) (layer F.SilkS) (width 0.15))
    (fp_line (start -3.5 -3.5) (end -3.5 3.5) (layer F.SilkS) (width 0.15))
    (fp_line (start 5.5 -1.5) (end 5 -1.5) (layer F.SilkS) (width 0.15))
    (fp_line (start 5 -1.5) (end 5 0) (layer F.SilkS) (width 0.15))
    (fp_line (start 5 0) (end 5.5 0) (layer F.SilkS) (width 0.15))
    (fp_line (start -3.5 -1.5) (end -3 -1.5) (layer F.SilkS) (width 0.15))
    (fp_line (start -3 -1.5) (end -3 0) (layer F.SilkS) (width 0.15))
    (fp_line (start -3 0) (end -3.5 0) (layer F.SilkS) (width 0.15))
    (pad "" smd rect (at 8.35 0 330) (size 2 2.8) (layers F.Cu F.Paste F.Mask))
    (pad "" smd rect (at -6.35 0 330) (size 2 2.8) (layers F.Cu F.Paste F.Mask))
    (pad 6 smd rect (at 0 -4.15 330) (size 1.1 2) (layers F.Cu F.Paste F.Mask))
    (pad 4 smd rect (at 2 -4.15 330) (size 1.1 2) (layers F.Cu F.Paste F.Mask))
    (pad 2 smd rect (at 4 -4.15 330) (size 1.1 2) (layers F.Cu F.Paste F.Mask))
    (pad 1 smd rect (at 4 4.15 330) (size 1.1 2) (layers F.Cu F.Paste F.Mask))
    (pad 3 smd rect (at 2 4.15 330) (size 1.1 2) (layers F.Cu F.Paste F.Mask))
    (pad 5 smd rect (at 0 4.15 330) (size 1.1 2) (layers F.Cu F.Paste F.Mask))
    (pad 7 smd rect (at -2 4.15 330) (size 1.1 2) (layers F.Cu F.Paste F.Mask))
    (pad 8 smd rect (at -2 -4.15 330) (size 1.1 2) (layers F.Cu F.Paste F.Mask))
    (model ../../../../../home/liknus/git/hrs-df11-library/hrs-df11.3dshapes/hrs-df11c-10dp-2v.wrl
      (at (xyz 0 0 0))
      (scale (xyz 0.3937 0.3937 0.3937))
      (rotate (xyz 0 0 0))
    )
  )

  (module DF11:hrs-df11c-4dp-2v (layer F.Cu) (tedit 56CF85C1) (tstamp 5BDDAB44)
    (at 205.932764 73.525 330)
    (path /5BBA1B56)
    (fp_text reference J3 (at 0.5 0 330) (layer F.SilkS)
      (effects (font (size 1 1) (thickness 0.15)))
    )
    (fp_text value Conn_02x02_Odd_Even (at 0 6 330) (layer F.Fab)
      (effects (font (size 1 1) (thickness 0.15)))
    )
    (fp_line (start 4 -3) (end -4 -3) (layer F.SilkS) (width 0.15))
    (fp_line (start -4 -3) (end -4 3) (layer F.SilkS) (width 0.15))
    (fp_line (start -4 3) (end 4 3) (layer F.SilkS) (width 0.15))
    (fp_line (start 4 3) (end 4 -3) (layer F.SilkS) (width 0.15))
    (fp_line (start 2.5 -1.5) (end 2 -1.5) (layer F.SilkS) (width 0.15))
    (fp_line (start 2 -1.5) (end 2 0) (layer F.SilkS) (width 0.15))
    (fp_line (start 2 0) (end 2.5 0) (layer F.SilkS) (width 0.15))
    (fp_line (start -2.5 -1.5) (end -2 -1.5) (layer F.SilkS) (width 0.15))
    (fp_line (start -2 -1.5) (end -2 0) (layer F.SilkS) (width 0.15))
    (fp_line (start -2 0) (end -2.5 0) (layer F.SilkS) (width 0.15))
    (fp_line (start -2.5 -3) (end -2.5 3) (layer F.SilkS) (width 0.15))
    (fp_line (start 2.5 -3) (end 2.5 3) (layer F.SilkS) (width 0.15))
    (pad 2 smd rect (at 1 -4.15 330) (size 1.1 2) (layers F.Cu F.Paste F.Mask))
    (pad 4 smd rect (at -1 -4.15 330) (size 1.1 2) (layers F.Cu F.Paste F.Mask))
    (pad 1 smd rect (at 1 4.15 330) (size 1.1 2) (layers F.Cu F.Paste F.Mask))
    (pad 3 smd rect (at -1 4.15 330) (size 1.1 2) (layers F.Cu F.Paste F.Mask))
    (pad "" smd rect (at 5.35 0 330) (size 2 2.8) (layers F.Cu F.Paste F.Mask))
    (pad "" smd rect (at -5.35 0 330) (size 2 2.8) (layers F.Cu F.Paste F.Mask))
    (model ../../../../../home/liknus/git/hrs-df11-library/hrs-df11.3dshapes/hrs-df11c-4dp-2v.wrl
      (at (xyz 0 0 0))
      (scale (xyz 0.3937 0.3937 0.3937))
      (rotate (xyz 0 0 0))
    )
  )

  (module DF11:hrs-df11c-4dp-2v (layer F.Cu) (tedit 56CF85C1) (tstamp 5BDDAB5A)
    (at 197.042764 111.371 330)
    (path /5BBA1C2E)
    (fp_text reference J4 (at 0.5 0 330) (layer F.SilkS)
      (effects (font (size 1 1) (thickness 0.15)))
    )
    (fp_text value Conn_02x02_Odd_Even (at 0 6 330) (layer F.Fab)
      (effects (font (size 1 1) (thickness 0.15)))
    )
    (fp_line (start 2.5 -3) (end 2.5 3) (layer F.SilkS) (width 0.15))
    (fp_line (start -2.5 -3) (end -2.5 3) (layer F.SilkS) (width 0.15))
    (fp_line (start -2 0) (end -2.5 0) (layer F.SilkS) (width 0.15))
    (fp_line (start -2 -1.5) (end -2 0) (layer F.SilkS) (width 0.15))
    (fp_line (start -2.5 -1.5) (end -2 -1.5) (layer F.SilkS) (width 0.15))
    (fp_line (start 2 0) (end 2.5 0) (layer F.SilkS) (width 0.15))
    (fp_line (start 2 -1.5) (end 2 0) (layer F.SilkS) (width 0.15))
    (fp_line (start 2.5 -1.5) (end 2 -1.5) (layer F.SilkS) (width 0.15))
    (fp_line (start 4 3) (end 4 -3) (layer F.SilkS) (width 0.15))
    (fp_line (start -4 3) (end 4 3) (layer F.SilkS) (width 0.15))
    (fp_line (start -4 -3) (end -4 3) (layer F.SilkS) (width 0.15))
    (fp_line (start 4 -3) (end -4 -3) (layer F.SilkS) (width 0.15))
    (pad "" smd rect (at -5.35 0 330) (size 2 2.8) (layers F.Cu F.Paste F.Mask))
    (pad "" smd rect (at 5.35 0 330) (size 2 2.8) (layers F.Cu F.Paste F.Mask))
    (pad 3 smd rect (at -1 4.15 330) (size 1.1 2) (layers F.Cu F.Paste F.Mask))
    (pad 1 smd rect (at 1 4.15 330) (size 1.1 2) (layers F.Cu F.Paste F.Mask))
    (pad 4 smd rect (at -1 -4.15 330) (size 1.1 2) (layers F.Cu F.Paste F.Mask))
    (pad 2 smd rect (at 1 -4.15 330) (size 1.1 2) (layers F.Cu F.Paste F.Mask))
    (model ../../../../../home/liknus/git/hrs-df11-library/hrs-df11.3dshapes/hrs-df11c-4dp-2v.wrl
      (at (xyz 0 0 0))
      (scale (xyz 0.3937 0.3937 0.3937))
      (rotate (xyz 0 0 0))
    )
  )

  (gr_line (start 215.184 63.11) (end 215.184 94.11) (layer F.SilkS) (width 0.2))
  (gr_line (start 75.184 98.11) (end 75.184 118.11) (layer F.SilkS) (width 0.2))
  (gr_line (start 215.184 63.11) (end 75.184 98.11) (layer F.SilkS) (width 0.2))
  (gr_line (start 201.184 118.11) (end 215.184 94.11) (layer F.SilkS) (width 0.2))
  (gr_line (start 75.184 118.11) (end 201.184 118.11) (layer F.SilkS) (width 0.2))

)
